Processor,Hardware Multiplier,Number of Logic Elements,Number of Memory Blocks,Time to perform 100x100 matrix multiply
NIOS II/e,None,2220,5504,2008761965
NIOS II/f,None,3456,12208,210504175
NIOS II/f,Embedded Multipliers,3755,12208,89330720
